0.1,0.0001,0.599222222222
0.1,0.001,0.67
0.1,0.01,0.703333333333
0.1,0.1,0.710888888889
0.1,1,0.710666666667
0.1,10,0.712111111111
0.1,100,0.703444444444
0.1,1000,0.697666666667
0.2,0.0001,0.6295
0.2,0.001,0.7075
0.2,0.01,0.738625
0.2,0.1,0.743
0.2,1,0.741625
0.2,10,0.73775
0.2,100,0.729
0.2,1000,0.727
0.3,0.0001,0.648428571429
0.3,0.001,0.726285714286
0.3,0.01,0.753
0.3,0.1,0.758714285714
0.3,1,0.758428571429
0.3,10,0.755142857143
0.3,100,0.751857142857
0.3,1000,0.749714285714
0.4,0.0001,0.6595
0.4,0.001,0.731166666667
0.4,0.01,0.758666666667
0.4,0.1,0.764833333333
0.4,1,0.765833333333
0.4,10,0.761
0.4,100,0.758833333333
0.4,1000,0.758833333333
0.5,0.0001,0.673
0.5,0.001,0.7386
0.5,0.01,0.7678
0.5,0.1,0.7784
0.5,1,0.7772
0.5,10,0.7716
0.5,100,0.7684
0.5,1000,0.7688
0.6,0.0001,0.6835
0.6,0.001,0.746
0.6,0.01,0.78025
0.6,0.1,0.78375
0.6,1,0.77875
0.6,10,0.77525
0.6,100,0.77125
0.6,1000,0.77
0.7,0.0001,0.699666666667
0.7,0.001,0.757
0.7,0.01,0.782333333333
0.7,0.1,0.788333333333
0.7,1,0.788333333333
0.7,10,0.782
0.7,100,0.780333333333
0.7,1000,0.780666666667
0.8,0.0001,0.6975
0.8,0.001,0.7485
0.8,0.01,0.7805
0.8,0.1,0.7845
0.8,1,0.7895
0.8,10,0.781
0.8,100,0.7805
0.8,1000,0.7785
